MonoBehaviour Base
	PPtr<GameObject> m_GameObject
		int m_FileID = 0
		SInt64 m_PathID = 4066863820439799539
	UInt8 m_Enabled = 1
	PPtr<MonoScript> m_Script
		int m_FileID = 0
		SInt64 m_PathID = -1514738865814811391
	string m_Name = ""
	int m_HorizontalFit = 2
	int m_VerticalFit = 0
