MonoBehaviour Base
	PPtr<GameObject> m_GameObject
		int m_FileID = 0
		SInt64 m_PathID = 3142255461376828019
	UInt8 m_Enabled = 1
	PPtr<MonoScript> m_Script
		int m_FileID = 0
		SInt64 m_PathID = 2610169434563177980
	string m_Name = ""
	PPtr<$Transform> m_motionWindow
		int m_FileID = 0
		SInt64 m_PathID = -7863845028161314720
	PPtr<$Animator> m_animator
		int m_FileID = 0
		SInt64 m_PathID = -5074071702338095747
