MonoBehaviour Base
	PPtr<GameObject> m_GameObject
		int m_FileID = 0
		SInt64 m_PathID = 1018231816510937087
	UInt8 m_Enabled = 1
	PPtr<MonoScript> m_Script
		int m_FileID = 0
		SInt64 m_PathID = -6485291061808369105
	string m_Name = ""
	Vector3f angle
		float x = 0
		float y = 0
		float z = -90
