MonoBehaviour Base
	PPtr<GameObject> m_GameObject
		int m_FileID = 0
		SInt64 m_PathID = 3764403875777116392
	UInt8 m_Enabled = 1
	PPtr<MonoScript> m_Script
		int m_FileID = 0
		SInt64 m_PathID = -755486548103991049
	string m_Name = ""
	ColorRGBA m_EffectColor
		float r = 1
		float g = 1
		float b = 1
		float a = 1
	Vector2f m_EffectDistance
		float x = 2
		float y = 2
	UInt8 m_UseGraphicAlpha = 1
