MonoBehaviour Base
	PPtr<GameObject> m_GameObject
		int m_FileID = 0
		SInt64 m_PathID = -7688417828218502751
	UInt8 m_Enabled = 0
	PPtr<MonoScript> m_Script
		int m_FileID = 0
		SInt64 m_PathID = -755486548103991049
	string m_Name = ""
	ColorRGBA m_EffectColor
		float r = 0
		float g = 0
		float b = 0
		float a = 1
	Vector2f m_EffectDistance
		float x = 1
		float y = -1
	UInt8 m_UseGraphicAlpha = 1
