MonoBehaviour Base
	PPtr<GameObject> m_GameObject
		int m_FileID = 0
		SInt64 m_PathID = -923834952446526011
	UInt8 m_Enabled = 1
	PPtr<MonoScript> m_Script
		int m_FileID = 0
		SInt64 m_PathID = 5932946722538318603
	string m_Name = ""
	UInt8 isPlay = 0
	vector listRender
		Array Array
		int size = 0
	vector listParticle
		Array Array
		int size = 0
