MonoBehaviour Base
	PPtr<GameObject> m_GameObject
		int m_FileID = 0
		SInt64 m_PathID = 0
	UInt8 m_Enabled = 1
	PPtr<MonoScript> m_Script
		int m_FileID = 0
		SInt64 m_PathID = 8302033850027404168
	string m_Name = "sd_s_1079100_SkeletonData"
	vector atlasAssets
		Array Array
		int size = 1
			[0]
			PPtr<$AtlasAsset> data
				int m_FileID = 0
				SInt64 m_PathID = 7338898655228524862
	float scale = 0.01
	PPtr<$TextAsset> skeletonJSON
		int m_FileID = 0
		SInt64 m_PathID = -2372354016724887478
	vector fromAnimation
		Array Array
		int size = 0
	vector toAnimation
		Array Array
		int size = 0
	vector duration
		Array Array
		int size = 0
	float defaultMix = 0
	PPtr<$RuntimeAnimatorController> controller
		int m_FileID = 0
		SInt64 m_PathID = 0
