MonoBehaviour Base
	PPtr<GameObject> m_GameObject
		int m_FileID = 0
		SInt64 m_PathID = -7626364401982262916
	UInt8 m_Enabled = 1
	PPtr<MonoScript> m_Script
		int m_FileID = 0
		SInt64 m_PathID = -5687138453870105977
	string m_Name = ""
	PPtr<$Transform> m_logo
		int m_FileID = 0
		SInt64 m_PathID = 2172500694944380403
	PPtr<$CanvasGroup> m_incCG
		int m_FileID = 0
		SInt64 m_PathID = 3650876561769800879
	PPtr<$Transform> m_DragonOffset
		int m_FileID = 0
		SInt64 m_PathID = -5219744887622491989
	PPtr<$Transform> m_SideCharaGroup
		int m_FileID = 0
		SInt64 m_PathID = 6122050126392644972
	PPtr<$Transform> m_CenterCharaGroup
		int m_FileID = 0
		SInt64 m_PathID = -8740668227748144771
	PPtr<$Transform> m_SlimeOffset
		int m_FileID = 0
		SInt64 m_PathID = -7627209571701290260
	PPtr<$CanvasGroup> m_slime
		int m_FileID = 0
		SInt64 m_PathID = 7063120505036574538
	PPtr<$Transform> m_eventMark
		int m_FileID = 0
		SInt64 m_PathID = 4840342934342724277
